<?xml version="1.0" encoding="UTF-8"?>
<svg width="26px" height="13px" viewBox="0 0 26 13" version="1.1" xmlns="http://www.w3.org/2000/svg" xmlns:xlink="http://www.w3.org/1999/xlink">
    <!-- Generator: Sketch 46 (44423) - http://www.bohemiancoding.com/sketch -->
    <title>Group 3</title>
    <desc>Created with Sketch.</desc>
    <defs></defs>
    <g id="Page-1" stroke="none" stroke-width="1" fill="none" fill-rule="evenodd">
        <g id="meni-icons" transform="translate(-177.000000, -2.000000)" fill-rule="nonzero" fill="#435363">
            <g id="Group-3" transform="translate(177.000000, 2.000000)">
                <path d="M6.2,12.29 C3.02436269,12.29 0.45,9.71563731 0.45,6.54 C0.45,3.36436269 3.02436269,0.79 6.2,0.79 C9.37563731,0.79 11.95,3.36436269 11.95,6.54 C11.9444955,9.71335446 9.37335446,12.2844955 6.2,12.29 L6.2,12.29 Z M6.2,1.54 C3.43857625,1.54 1.2,3.77857625 1.2,6.54 C1.2,9.30142375 3.43857625,11.54 6.2,11.54 C8.96142375,11.54 11.2,9.30142375 11.2,6.54 C11.2,3.77857625 8.96142375,1.54 6.2,1.54 Z" id="Shape"></path>
                <rect id="Rectangle-path" x="11.57" y="6.16" width="13.94" height="1"></rect>
                <polygon id="Shape" points="23.78 9.2 19.39 9.2 19.39 6.54 20.14 6.54 20.14 8.45 23.03 8.45 23.03 6.54 23.78 6.54"></polygon>
            </g>
        </g>
    </g>
</svg>