<?xml version="1.0" encoding="UTF-8"?>
<svg width="14px" height="16px" viewBox="0 0 14 16" version="1.1" xmlns="http://www.w3.org/2000/svg" xmlns:xlink="http://www.w3.org/1999/xlink">
    <!-- Generator: Sketch 46.2 (44496) - http://www.bohemiancoding.com/sketch -->
    <title>menu-icon-apply-light</title>
    <desc>Created with Sketch.</desc>
    <defs></defs>
    <g id="Page-1" stroke="none" stroke-width="1" fill="none" fill-rule="evenodd">
        <g id="menu-icon-apply-light" fill-rule="nonzero" fill="#FFFFFF">
            <path d="M10.91,15.98 L10.79,15.98 L0.32,15.98 C0.154314575,15.98 0.02,15.8456854 0.02,15.68 L0.02,1.27 C0.02,1.10431458 0.154314575,0.97 0.32,0.97 L10.78,0.97 C10.9456854,0.97 11.08,1.10431458 11.08,1.27 L11.08,2.42 L10.48,2.42 L10.48,1.6 L0.6,1.6 L0.6,15.41 L10.47,15.41 L10.47,8.71 L11.07,8.71 L11.07,15.71 C11.0717512,15.822945 11.0099115,15.9272996 10.91,15.98 L10.91,15.98 Z" id="Shape"></path>
            <rect id="Rectangle-path" transform="translate(5.577431, 4.321540) rotate(-0.080000) translate(-5.577431, -4.321540) " x="2.19243077" y="3.82153999" width="6.77" height="1"></rect>
            <rect id="Rectangle-path" transform="translate(4.865215, 7.419625) rotate(-89.840000) translate(-4.865215, -7.419625) " x="4.36521501" y="4.76962524" width="1" height="5.3"></rect>
            <rect id="Rectangle-path" transform="translate(4.389562, 9.134841) rotate(-89.790000) translate(-4.389562, -9.134841) " x="3.88956246" y="6.91484137" width="1" height="4.44"></rect>
            <rect id="Rectangle-path" transform="translate(4.027026, 11.153215) rotate(-0.180000) translate(-4.027026, -11.153215) " x="2.20702573" y="10.6532153" width="3.64" height="1"></rect>
            <rect id="Rectangle-path" transform="translate(4.109594, 12.993584) rotate(-0.080000) translate(-4.109594, -12.993584) " x="2.20459366" y="12.493584" width="3.81" height="1"></rect>
            <path d="M7.54,12.52 C7.2399349,12.7017282 6.87843441,12.7523383 6.54,12.66 C6.09,12.37 6.1,11.02 6.46,10.42 C6.82,9.82 10.91,2.68 10.95,2.61 C10.9897509,2.54100987 11.0552973,2.49065201 11.1322004,2.4700195 C11.2091034,2.44938698 11.2910541,2.46017244 11.36,2.5 L13,3.41 C13.0689901,3.44975093 13.119348,3.51529734 13.1399805,3.59220035 C13.160613,3.66910337 13.1498276,3.75105408 13.11,3.82 C12.94,4.11 9.02,10.99 8.62,11.66 C8.35287757,12.0470772 7.97706316,12.3463368 7.54,12.52 L7.54,12.52 Z M6.86,12.12 C7.00857022,12.0912907 7.15300607,12.0442651 7.29,11.98 C7.60558291,11.8500672 7.87658142,11.6311838 8.07,11.35 C8.42,10.76 11.67,5.08 12.41,3.78 L11.32,3.12 C10.57,4.44 7.32,10.17 6.98,10.68 C6.77343225,11.1313543 6.73098838,11.6406807 6.86,12.12 L6.86,12.12 Z" id="Shape"></path>
            <path d="M12.52,3.64 C12.4024988,3.68956158 12.2665065,3.65942206 12.1809476,3.56485697 C12.0953887,3.47029188 12.0789648,3.33197135 12.14,3.22 L12.57,2.46 L12.48,2.36 L12,3.12 C11.907063,3.24248419 11.7365693,3.27487955 11.6051849,3.19501845 C11.4738005,3.11515734 11.42406,2.94889409 11.49,2.81 L12.16,1.69 C12.208847,1.61168099 12.2910278,1.560208 12.3828131,1.5504436 C12.4745985,1.5406792 12.5657691,1.57371055 12.63,1.64 L13.14,2.18 C13.2151069,2.28457872 13.2151069,2.42542128 13.14,2.53 L12.6,3.53 C12.5821067,3.57230792 12.5547366,3.60994173 12.52,3.64 L12.52,3.64 Z" id="Shape"></path>
            <path d="M11.51,8.18 L11.42,8.18 L11.01,8.18 C10.8956358,8.20966249 10.7745114,8.16943812 10.7006112,8.0772547 C10.6267109,7.98507129 10.6137983,7.85809726 10.6676284,7.75292433 C10.7214585,7.64775139 10.8320058,7.58396718 10.95,7.59 L11.21,7.59 L12.95,4.54 L12.57,3.75 C12.4984016,3.60087203 12.5610315,3.42192957 12.71,3.35 L12.71,3.35 C12.8565251,3.28497198 13.0282847,3.34662929 13.1,3.49 L13.54,4.42 C13.5862267,4.50760948 13.5862267,4.61239052 13.54,4.7 L11.64,8.02 C11.6169274,8.08701532 11.5708731,8.14369758 11.51,8.18 L11.51,8.18 Z" id="Shape"></path>
            <path d="M9.8,9.12 C9.71508573,9.16278858 9.61491427,9.16278858 9.53,9.12 L8.1,8.31 C7.95640597,8.22715729 7.90715729,8.04359403 7.99,7.9 C8.07284271,7.75640597 8.25640597,7.70715729 8.4,7.79 L9.83,8.6 C9.9202004,8.65871653 9.97203545,8.76125297 9.96583646,8.8687021 C9.95963747,8.97615124 9.89635446,9.07204625 9.8,9.12 L9.8,9.12 Z" id="Shape"></path>
            <path d="M6.62,13.02 C6.49992826,13.0746909 6.35821857,13.044513 6.27084781,12.9456461 C6.18347705,12.8467792 6.17095691,12.7024338 6.24,12.59 L6.45,12.25 C6.54293696,12.1275158 6.71343073,12.0951204 6.84481513,12.1749816 C6.97619954,12.2548427 7.02594003,12.4211059 6.96,12.56 L6.75,12.9 C6.71971458,12.9521585 6.67441081,12.9939773 6.62,13.02 L6.62,13.02 Z" id="Shape"></path>
        </g>
    </g>
</svg>